SDS291 - Final Project
…
hi_funusual = 8/282
hi_vunusual = 10/282

Unusual_Neck <- neck_size %>%
mutate(h_i = neck_diag$hat,
       resid = no_age_lm$resid, 
       stnd_res = neck_diag$std.res, 
       stud_res = neck_diag$stud.res, 
       fitted = no_age_lm$fitted,
       cooks = neck_diag$cooks) %>%
  filter(stnd_res > 2|stnd_res < -2| stud_res > 2|stud_res < -2| cooks >= 0.5| h_i >= hi_funusual)

Unusual_Neck

## # A tibble: 26 x 12
##      age weight wrist bicep height  neck     h_i  resid stnd_res stud_res fitted
##    <dbl>  <dbl> <dbl> <dbl>  <dbl> <dbl>   <dbl>  <dbl>    <dbl>    <dbl>  <dbl>
##  1    24   184.  17.7  32.2   71.2  34.4 0.00838 -3.42    -2.75    -2.78    37.8
##  2    34   196.  17.3  36.2   71    38.9 0.0333   0.419    0.341    0.340   38.5
##  3    28   184.  18.5  37.2   67.8  38   0.0290  -0.974   -0.791   -0.791   39.0
##  4    31   148   17    29.2   67.5  38.8 0.0111   3.37     2.71     2.75    35.4
##  5    46   363.  21.4  45     72.2  51.2 0.178    1.64     1.45     1.45    49.6
##  6    45   263.  21.4  36.4   68.8  43.2 0.0635  -1.12    -0.929   -0.929   44.3
##  7    48   217   18.4  36.7   70    37.3 0.0185  -2.94    -2.37    -2.40    40.2
##  8    47   158.  17.3  26     72.2  34.9 0.0320  -0.802   -0.652   -0.651   35.7
##  9    49   153.  18.5  38.5   73.5  35.1 0.0952  -2.73    -2.29    -2.31    37.8
## 10    42   136.  18.5  27.7   67.5  37.8 0.0306   1.94     1.58     1.58    35.9
## #  with 16 more rows, and 1 more variable: cooks <dbl>
…
